%YAML 1.1
%TAG !u! tag:unity3d.com,2011:
--- !u!114 &11400000
MonoBehaviour:
  m_ObjectHideFlags: 0
  m_CorrespondingSourceObject: {fileID: 0}
  m_PrefabInstance: {fileID: 0}
  m_PrefabAsset: {fileID: 0}
  m_GameObject: {fileID: 0}
  m_Enabled: 1
  m_EditorHideFlags: 0
  m_Script: {fileID: 11500000, guid: 29e885a30e48c7448a2a018b36b29bc3, type: 3}
  m_Name: ExampleSceneTestConfig
  m_EditorClassIdentifier: 
  BotToRun: {fileID: 11400000, guid: d9f3705fc6e005a469b6dcbc2b8f8e4c, type: 2}
  configName: Example Scene
  timesToRepeat: 0
  captureScreenshots: 1
  maxLogCount: 50
  reportResults: 1
  quitOnComplete: 0
